[
  {
    "name": "Жіночі Кросівки Air Max",
    "price": 4560,
    "image": "https://footballmall.com.ua/image/cache/catalog/products/futbol/miachi/16_08/krosivki-zhinochi-nike-air-max-9-300x300.jpg",
    "article": 1,
    "color": "white",
    "quantity": 1
  },
  {
    "name": "Жіночі Кросівки Nike Womens Tanjun",
    "price": 2040,
    "image": "https://footballmall.com.ua/image/cache/catalog/products/obuv/zhenska/nike/02_03_1/290308540-300x300.jpg",
    "article": 2,
    "color": "black",
    "quantity": 1
  },
  {
    "name": "Жіночі Кросівки Air Max",
    "price": 4560,
    "image": "https://footballmall.com.ua/image/cache/catalog/products/futbol/miachi/18_10/%D0%99-300x300.jpg",
    "article": 3,
    "color": "white",
    "quantity": 1
  },
  {
    "name": "Жіночі Кросівки Nike Wmns",
    "price": 2700,
    "image": "https://footballmall.com.ua/image/cache/catalog/products/obuv/zhenska/nike/17_05_1/315832289-300x300.jpg",
    "article": 4,
    "color": "pink",
    "quantity": 1
  },
  {
    "name": "Жіночі Кросівки Nike Wmns Air",
    "price": 2980,
    "image": "https://footballmall.com.ua/image/cache/catalog/products/obuv/zhenska/nike/11_07_1/ee7b752b7b4a2dcc7564bdfe24ac63b1-1000x1000-r-300x300.jpg",
    "article": 5,
    "color": "light-green",
    "quantity": 1
  },
  {
    "name": "Жіночі Кросівки Nike Tanjun",
    "price": 2150,
    "image": "https://footballmall.com.ua/image/cache/catalog/products/obuv/zhenska/nike/01_06_3/nike-tanjun-dj6257-003-300x300.jpg",
    "article": 6,
    "color": "gray",
    "quantity": 1
  },
  {
    "name": "Жіночі Кросівки Nike Women Zoom",
    "price": 4280,
    "image": "https://footballmall.com.ua/image/cache/catalog/products/obuv/zhenska/nike/17_05/nike-zoom-superrep-4-next-nature-sneak-b00e17-300x300.jpg",
    "article": 7,
    "color": "red",
    "quantity": 1
  },
  {
    "name": "Жіночі Кросівки Nike Women Air Winflo",
    "price": 3000,
    "image": "https://footballmall.com.ua/image/cache/catalog/products/obuv/zhenska/nike/11_07_1/dv4023-100-2-1000x1000-r-300x300.jpg",
    "article": 8,
    "color": "brown",
    "quantity": 1
  },
  {
    "name": "Жіночі Кросівки Nike Wmns Quest",
    "price": 2380,
    "image": "https://footballmall.com.ua/image/cache/catalog/products/obuv/zhenska/nike/11_07_2/335602837-300x300.jpg",
    "article": 9,
    "color": "blue",
    "quantity": 1
  },
  {
    "name": "Жіночі Кросівки Nike Women Air Max Plus",
    "price": 5420,
    "image": "https://footballmall.com.ua/image/cache/catalog/catalog_old/03/3/zhenskie-krossovki-nike-air-max-270-ah6789-601-original-1-300x300.jpg",
    "article": 10,
    "color": "white",
    "quantity": 1
  }
]
